…
```julia
julia> using FRED
julia> ENV["FRED_API_KEY"] = "abcdefj1234"
julia> conn = FREDConnection()
```

It is strongly recommended NOT to store the API key directly in your code, as this could expose it to others. If you don't want to have a persistent environment variable, consider storing it in a text file that is read by your code (and that is not committed to a public repository).

### Retrieving Data

The `get_fred_data` function retrieves a time series from FRED along with metadata for that variable. The function returns a `DataFrame` with columns `date` and `value`. For example,

```sh
julia> get_fred_data(conn, "GS10")
854×2 DataFrame
 Row │ date        value    
     │ Date        Float64?
─────┼──────────────────────
   1 │ 1953-04-01      2.83
   2 │ 1953-05-01      3.05
  ⋮  │     ⋮          ⋮
 853 │ 2024-04-01      4.54
 854 │ 2024-05-01      4.48
            850 rows omitted
```
…
